[
  {
    "lowerLimit": 0,
    "equalLowerLimit": true,
    "upperLimit": 50,
    "equalUpperLimit": false,
    "price" : 300.00
  },
  {
    "lowerLimit": 50,
    "equalLowerLimit": true,
    "upperLimit": 80,
    "equalUpperLimit": false,
    "price" : 450.00
  },
  {
    "lowerLimit": 80,
    "equalLowerLimit": true,
    "upperLimit": 100,
    "equalUpperLimit": true,
    "price" : 900.00
  }
]